
[
    {
        "request": {
        },
        "method": "GET",
        "status": 200,
        "response": {
            "count": 60,
            "next": "http://swapi.dev/api/planets/?page=2",
            "previous": null,
            "results": [
                {
                    "climate": "arid",
                    "created": "2014-12-09T13:50:49.641000Z",
                    "diameter": "10465",
                    "edited": "2014-12-20T20:58:18.411000Z",
                    "films": [
                        "http://swapi.dev/api/films/1/",
                        "http://swapi.dev/api/films/3/",
                        "http://swapi.dev/api/films/4/",
                        "http://swapi.dev/api/films/5/",
                        "http://swapi.dev/api/films/6/"
                    ],
                    "gravity": "1 standard",
                    "name": "Tatooine",
                    "orbital_period": "304",
                    "population": "200000",
                    "residents": [
                        "http://swapi.dev/api/people/1/",
                        "http://swapi.dev/api/people/2/",
                        "http://swapi.dev/api/people/4/",
                        "http://swapi.dev/api/people/6/",
                        "http://swapi.dev/api/people/7/",
                        "http://swapi.dev/api/people/8/",
                        "http://swapi.dev/api/people/9/",
                        "http://swapi.dev/api/people/11/",
                        "http://swapi.dev/api/people/43/",
                        "http://swapi.dev/api/people/62/"
                    ],
                    "rotation_period": "23",
                    "surface_water": "1",
                    "terrain": "desert",
                    "url": "http://swapi.dev/api/planets/1/"
                },
                {
                    "climate": "temperate",
                    "created": "2014-12-10T11:35:48.479000Z",
                    "diameter": "12500",
                    "edited": "2014-12-20T20:58:18.420000Z",
                    "films": [
                        "http://swapi.dev/api/films/1/",
                        "http://swapi.dev/api/films/6/"
                    ],
                    "gravity": "1 standard",
                    "name": "Alderaan",
                    "orbital_period": "364",
                    "population": "2000000000",
                    "residents": [
                        "http://swapi.dev/api/people/5/",
                        "http://swapi.dev/api/people/68/",
                        "http://swapi.dev/api/people/81/"
                    ],
                    "rotation_period": "24",
                    "surface_water": "40",
                    "terrain": "grasslands, mountains",
                    "url": "http://swapi.dev/api/planets/2/"
                },
                {
                    "climate": "temperate, tropical",
                    "created": "2014-12-10T11:37:19.144000Z",
                    "diameter": "10200",
                    "edited": "2014-12-20T20:58:18.421000Z",
                    "films": [
                        "http://swapi.dev/api/films/1/"
                    ],
                    "gravity": "1 standard",
                    "name": "Yavin IV",
                    "orbital_period": "4818",
                    "population": "1000",
                    "residents": [],
                    "rotation_period": "24",
                    "surface_water": "8",
                    "terrain": "jungle, rainforests",
                    "url": "http://swapi.dev/api/planets/3/"
                },
                {
                    "climate": "frozen",
                    "created": "2014-12-10T11:39:13.934000Z",
                    "diameter": "7200",
                    "edited": "2014-12-20T20:58:18.423000Z",
                    "films": [
                        "http://swapi.dev/api/films/2/"
                    ],
                    "gravity": "1.1 standard",
                    "name": "Hoth",
                    "orbital_period": "549",
                    "population": "unknown",
                    "residents": [],
                    "rotation_period": "23",
                    "surface_water": "100",
                    "terrain": "tundra, ice caves, mountain ranges",
                    "url": "http://swapi.dev/api/planets/4/"
                },
                {
                    "climate": "murky",
                    "created": "2014-12-10T11:42:22.590000Z",
                    "diameter": "8900",
                    "edited": "2014-12-20T20:58:18.425000Z",
                    "films": [
                        "http://swapi.dev/api/films/2/",
                        "http://swapi.dev/api/films/3/",
                        "http://swapi.dev/api/films/6/"
                    ],
                    "gravity": "N/A",
                    "name": "Dagobah",
                    "orbital_period": "341",
                    "population": "unknown",
                    "residents": [],
                    "rotation_period": "23",
                    "surface_water": "8",
                    "terrain": "swamp, jungles",
                    "url": "http://swapi.dev/api/planets/5/"
                },
                {
                    "climate": "temperate",
                    "created": "2014-12-10T11:43:55.240000Z",
                    "diameter": "118000",
                    "edited": "2014-12-20T20:58:18.427000Z",
                    "films": [
                        "http://swapi.dev/api/films/2/"
                    ],
                    "gravity": "1.5 (surface), 1 standard (Cloud City)",
                    "name": "Bespin",
                    "orbital_period": "5110",
                    "population": "6000000",
                    "residents": [
                        "http://swapi.dev/api/people/26/"
                    ],
                    "rotation_period": "12",
                    "surface_water": "0",
                    "terrain": "gas giant",
                    "url": "http://swapi.dev/api/planets/6/"
                },
                {
                    "climate": "temperate",
                    "created": "2014-12-10T11:50:29.349000Z",
                    "diameter": "4900",
                    "edited": "2014-12-20T20:58:18.429000Z",
                    "films": [
                        "http://swapi.dev/api/films/3/"
                    ],
                    "gravity": "0.85 standard",
                    "name": "Endor",
                    "orbital_period": "402",
                    "population": "30000000",
                    "residents": [
                        "http://swapi.dev/api/people/30/"
                    ],
                    "rotation_period": "18",
                    "surface_water": "8",
                    "terrain": "forests, mountains, lakes",
                    "url": "http://swapi.dev/api/planets/7/"
                },
                {
                    "climate": "temperate",
                    "created": "2014-12-10T11:52:31.066000Z",
                    "diameter": "12120",
                    "edited": "2014-12-20T20:58:18.430000Z",
                    "films": [
                        "http://swapi.dev/api/films/3/",
                        "http://swapi.dev/api/films/4/",
                        "http://swapi.dev/api/films/5/",
                        "http://swapi.dev/api/films/6/"
                    ],
                    "gravity": "1 standard",
                    "name": "Naboo",
                    "orbital_period": "312",
                    "population": "4500000000",
                    "residents": [
                        "http://swapi.dev/api/people/3/",
                        "http://swapi.dev/api/people/21/",
                        "http://swapi.dev/api/people/35/",
                        "http://swapi.dev/api/people/36/",
                        "http://swapi.dev/api/people/37/",
                        "http://swapi.dev/api/people/38/",
                        "http://swapi.dev/api/people/39/",
                        "http://swapi.dev/api/people/42/",
                        "http://swapi.dev/api/people/60/",
                        "http://swapi.dev/api/people/61/",
                        "http://swapi.dev/api/people/66/"
                    ],
                    "rotation_period": "26",
                    "surface_water": "12",
                    "terrain": "grassy hills, swamps, forests, mountains",
                    "url": "http://swapi.dev/api/planets/8/"
                },
                {
                    "climate": "temperate",
                    "created": "2014-12-10T11:54:13.921000Z",
                    "diameter": "12240",
                    "edited": "2014-12-20T20:58:18.432000Z",
                    "films": [
                        "http://swapi.dev/api/films/3/",
                        "http://swapi.dev/api/films/4/",
                        "http://swapi.dev/api/films/5/",
                        "http://swapi.dev/api/films/6/"
                    ],
                    "gravity": "1 standard",
                    "name": "Coruscant",
                    "orbital_period": "368",
                    "population": "1000000000000",
                    "residents": [
                        "http://swapi.dev/api/people/34/",
                        "http://swapi.dev/api/people/55/",
                        "http://swapi.dev/api/people/74/"
                    ],
                    "rotation_period": "24",
                    "surface_water": "unknown",
                    "terrain": "cityscape, mountains",
                    "url": "http://swapi.dev/api/planets/9/"
                },
                {
                    "climate": "temperate",
                    "created": "2014-12-10T12:45:06.577000Z",
                    "diameter": "19720",
                    "edited": "2014-12-20T20:58:18.434000Z",
                    "films": [
                        "http://swapi.dev/api/films/5/"
                    ],
                    "gravity": "1 standard",
                    "name": "Kamino",
                    "orbital_period": "463",
                    "population": "1000000000",
                    "residents": [
                        "http://swapi.dev/api/people/22/",
                        "http://swapi.dev/api/people/72/",
                        "http://swapi.dev/api/people/73/"
                    ],
                    "rotation_period": "27",
                    "surface_water": "100",
                    "terrain": "ocean",
                    "url": "http://swapi.dev/api/planets/10/"
                }
            ]
        }
    }
]
